0.749739390056
0.347626552025
0.740166747679
0.105528742289
0.514017265932
0.777196140874
0.244154100432
0.70686469809
0.9278927349
0.795964624713
0.787921978071
0.696655160744
0.0262847941964
0.426135084021
0.814540244536
0.156173660862
0.261795938353
0.121138386197
0.882756951304
0.7369203022
0.442108647458
0.889828438468
0.290251703398
0.0672396793052
0.213607026802
